<mxfile modified="2023-12-28T08:09:41.134Z" host="app.diagrams.net" agent="Mozilla/5.0 (Macintosh; Intel Mac OS X 10_15_7) AppleWebKit/537.36 (KHTML, like Gecko) Chrome/120.0.0.0 Safari/537.36" etag="9QEWUsrZigGCURd9npsS" version="22.1.15" type="device">
  <diagram id="Ht1M8jgEwFfnCIfOTk4-" name="Page-1">
    <mxGraphModel dx="1873" dy="1948" grid="1" gridSize="10" guides="1" tooltips="1" connect="1" arrows="1" fold="1" page="1" pageScale="1" pageWidth="1169" pageHeight="827" math="0" shadow="0">
      <root>
        <mxCell id="0" />
        <mxCell id="1" parent="0" />
        <mxCell id="eBnicxtXj8pF9Ztt-knJ-8" value="VPC" style="outlineConnect=0;gradientColor=none;html=1;whiteSpace=wrap;fontSize=12;fontStyle=0;shape=mxgraph.aws4.group;grIcon=mxgraph.aws4.group_vpc;strokeColor=#879196;fillColor=none;verticalAlign=top;align=left;spacingLeft=30;fontColor=#879196;dashed=0;" parent="1" vertex="1">
          <mxGeometry x="150" y="-570" width="1400" height="730" as="geometry" />
        </mxCell>
        <mxCell id="eBnicxtXj8pF9Ztt-knJ-29" value="Availability Zone A" style="outlineConnect=0;gradientColor=none;html=1;whiteSpace=wrap;fontSize=12;fontStyle=0;shape=mxgraph.aws4.group;grIcon=mxgraph.aws4.group_availability_zone;strokeColor=#545B64;fillColor=none;verticalAlign=top;align=left;spacingLeft=30;fontColor=#545B64;dashed=1;" parent="1" vertex="1">
          <mxGeometry x="279" y="-460" width="400" height="590" as="geometry" />
        </mxCell>
        <mxCell id="UEzPUAAOIrF-is8g5C7q-175" value="AWS Cloud" style="points=[[0,0],[0.25,0],[0.5,0],[0.75,0],[1,0],[1,0.25],[1,0.5],[1,0.75],[1,1],[0.75,1],[0.5,1],[0.25,1],[0,1],[0,0.75],[0,0.5],[0,0.25]];outlineConnect=0;gradientColor=none;html=1;whiteSpace=wrap;fontSize=12;fontStyle=0;shape=mxgraph.aws4.group;grIcon=mxgraph.aws4.group_aws_cloud_alt;strokeColor=#232F3E;fillColor=none;verticalAlign=top;align=left;spacingLeft=30;fontColor=#232F3E;dashed=0;labelBackgroundColor=#ffffff;container=0;pointerEvents=0;collapsible=0;recursiveResize=0;" parent="1" vertex="1">
          <mxGeometry y="-620" width="1600" height="810" as="geometry" />
        </mxCell>
        <mxCell id="eBnicxtXj8pF9Ztt-knJ-3" value="User" style="verticalLabelPosition=bottom;html=1;verticalAlign=top;align=center;strokeColor=none;fillColor=#00BEF2;shape=mxgraph.azure.computer;pointerEvents=1;" parent="1" vertex="1">
          <mxGeometry x="160" y="-730" width="72" height="60" as="geometry" />
        </mxCell>
        <mxCell id="eBnicxtXj8pF9Ztt-knJ-30" value="Public Subnet A" style="outlineConnect=0;gradientColor=none;html=1;whiteSpace=wrap;fontSize=12;fontStyle=0;shape=mxgraph.aws4.group;grIcon=mxgraph.aws4.group_subnet;strokeColor=#879196;fillColor=none;verticalAlign=top;align=left;spacingLeft=30;fontColor=#879196;dashed=0;" parent="1" vertex="1">
          <mxGeometry x="299" y="-407" width="360" height="229" as="geometry" />
        </mxCell>
        <mxCell id="eBnicxtXj8pF9Ztt-knJ-31" value="Private Subnet A" style="outlineConnect=0;gradientColor=none;html=1;whiteSpace=wrap;fontSize=12;fontStyle=0;shape=mxgraph.aws4.group;grIcon=mxgraph.aws4.group_subnet;strokeColor=#879196;fillColor=none;verticalAlign=top;align=left;spacingLeft=30;fontColor=#879196;dashed=0;" parent="1" vertex="1">
          <mxGeometry x="300" y="-138" width="359" height="231" as="geometry" />
        </mxCell>
        <mxCell id="eBnicxtXj8pF9Ztt-knJ-40" value="" style="outlineConnect=0;fontColor=#232F3E;gradientColor=none;fillColor=#3399FF;strokeColor=none;dashed=1;verticalLabelPosition=bottom;verticalAlign=top;align=center;html=1;fontSize=12;fontStyle=0;aspect=fixed;pointerEvents=1;shape=mxgraph.aws4.application_load_balancer;fillStyle=solid;strokeWidth=0.2;" parent="1" vertex="1">
          <mxGeometry x="444" y="-329.5" width="70" height="70" as="geometry" />
        </mxCell>
        <mxCell id="eBnicxtXj8pF9Ztt-knJ-52" value="Public Route Table A" style="outlineConnect=0;dashed=0;verticalLabelPosition=bottom;verticalAlign=top;align=center;html=1;shape=mxgraph.aws3.route_table;fillColor=#F58536;gradientColor=none;" parent="1" vertex="1">
          <mxGeometry x="570" y="-378.5" width="53.26" height="49" as="geometry" />
        </mxCell>
        <mxCell id="eBnicxtXj8pF9Ztt-knJ-53" value="" style="sketch=0;outlineConnect=0;fontColor=#232F3E;gradientColor=none;fillColor=#ED7100;strokeColor=none;dashed=0;verticalLabelPosition=bottom;verticalAlign=top;align=center;html=1;fontSize=12;fontStyle=0;aspect=fixed;pointerEvents=1;shape=mxgraph.aws4.lambda_function;" parent="1" vertex="1">
          <mxGeometry x="444" y="-57.5" width="70" height="70" as="geometry" />
        </mxCell>
        <mxCell id="eBnicxtXj8pF9Ztt-knJ-79" value="Private Route Table A" style="outlineConnect=0;dashed=0;verticalLabelPosition=bottom;verticalAlign=top;align=center;html=1;shape=mxgraph.aws3.route_table;fillColor=#F58536;gradientColor=none;" parent="1" vertex="1">
          <mxGeometry x="570" y="-113" width="53.26" height="49" as="geometry" />
        </mxCell>
        <mxCell id="eBnicxtXj8pF9Ztt-knJ-93" value="" style="endArrow=classic;startArrow=classic;html=1;rounded=0;edgeStyle=orthogonalEdgeStyle;" parent="1" source="eBnicxtXj8pF9Ztt-knJ-40" target="eBnicxtXj8pF9Ztt-knJ-35" edge="1">
          <mxGeometry width="50" height="50" relative="1" as="geometry">
            <mxPoint x="1240" y="-210" as="sourcePoint" />
            <mxPoint x="1290" y="-260" as="targetPoint" />
            <Array as="points">
              <mxPoint x="479" y="-200" />
              <mxPoint x="215" y="-200" />
            </Array>
          </mxGeometry>
        </mxCell>
        <mxCell id="eBnicxtXj8pF9Ztt-knJ-105" value="" style="endArrow=classic;startArrow=classic;html=1;rounded=0;edgeStyle=orthogonalEdgeStyle;" parent="1" source="eBnicxtXj8pF9Ztt-knJ-16" target="eBnicxtXj8pF9Ztt-knJ-79" edge="1">
          <mxGeometry width="50" height="50" relative="1" as="geometry">
            <mxPoint x="380" y="81" as="sourcePoint" />
            <mxPoint x="494" y="240" as="targetPoint" />
          </mxGeometry>
        </mxCell>
        <mxCell id="eBnicxtXj8pF9Ztt-knJ-110" value="" style="endArrow=classic;startArrow=classic;html=1;rounded=0;exitX=0.5;exitY=0;exitDx=0;exitDy=0;exitPerimeter=0;edgeStyle=orthogonalEdgeStyle;" parent="1" source="eBnicxtXj8pF9Ztt-knJ-25" target="eBnicxtXj8pF9Ztt-knJ-3" edge="1">
          <mxGeometry width="50" height="50" relative="1" as="geometry">
            <mxPoint x="1240" y="-170" as="sourcePoint" />
            <mxPoint x="1290" y="-220" as="targetPoint" />
            <Array as="points">
              <mxPoint x="70" y="-390" />
            </Array>
          </mxGeometry>
        </mxCell>
        <mxCell id="eBnicxtXj8pF9Ztt-knJ-11" value="Availability Zone C" style="outlineConnect=0;gradientColor=none;html=1;whiteSpace=wrap;fontSize=12;fontStyle=0;shape=mxgraph.aws4.group;grIcon=mxgraph.aws4.group_availability_zone;strokeColor=#545B64;fillColor=none;verticalAlign=top;align=left;spacingLeft=30;fontColor=#545B64;dashed=1;" parent="1" vertex="1">
          <mxGeometry x="1130" y="-460" width="401.86" height="590" as="geometry" />
        </mxCell>
        <mxCell id="eBnicxtXj8pF9Ztt-knJ-12" value="Availability Zone B" style="outlineConnect=0;gradientColor=none;html=1;whiteSpace=wrap;fontSize=12;fontStyle=0;shape=mxgraph.aws4.group;grIcon=mxgraph.aws4.group_availability_zone;strokeColor=#545B64;fillColor=none;verticalAlign=top;align=left;spacingLeft=30;fontColor=#545B64;dashed=1;" parent="1" vertex="1">
          <mxGeometry x="700" y="-460" width="411.86" height="590" as="geometry" />
        </mxCell>
        <mxCell id="eBnicxtXj8pF9Ztt-knJ-14" value="Internet Gateway" style="outlineConnect=0;dashed=0;verticalLabelPosition=bottom;verticalAlign=top;align=center;html=1;shape=mxgraph.aws3.internet_gateway;fillColor=#F58534;gradientColor=none;" parent="1" vertex="1">
          <mxGeometry x="184.5100000000001" y="-540" width="62.29" height="65" as="geometry" />
        </mxCell>
        <mxCell id="eBnicxtXj8pF9Ztt-knJ-16" value="VPC Endpoint (S3)" style="outlineConnect=0;fontColor=#232F3E;gradientColor=none;fillColor=#8C4FFF;strokeColor=none;dashed=0;verticalLabelPosition=bottom;verticalAlign=top;align=center;html=1;fontSize=12;fontStyle=0;aspect=fixed;pointerEvents=1;shape=mxgraph.aws4.endpoint;" parent="1" vertex="1">
          <mxGeometry x="184.51" y="31" width="60" height="60" as="geometry" />
        </mxCell>
        <mxCell id="eBnicxtXj8pF9Ztt-knJ-20" value="Public Subnet B" style="outlineConnect=0;gradientColor=none;html=1;whiteSpace=wrap;fontSize=12;fontStyle=0;shape=mxgraph.aws4.group;grIcon=mxgraph.aws4.group_subnet;strokeColor=#879196;fillColor=none;verticalAlign=top;align=left;spacingLeft=30;fontColor=#879196;dashed=0;" parent="1" vertex="1">
          <mxGeometry x="725.9300000000001" y="-409" width="360" height="229" as="geometry" />
        </mxCell>
        <mxCell id="eBnicxtXj8pF9Ztt-knJ-21" value="Public Subnet C" style="outlineConnect=0;gradientColor=none;html=1;whiteSpace=wrap;fontSize=12;fontStyle=0;shape=mxgraph.aws4.group;grIcon=mxgraph.aws4.group_subnet;strokeColor=#879196;fillColor=none;verticalAlign=top;align=left;spacingLeft=30;fontColor=#879196;dashed=0;" parent="1" vertex="1">
          <mxGeometry x="1150.93" y="-409" width="360" height="229" as="geometry" />
        </mxCell>
        <mxCell id="eBnicxtXj8pF9Ztt-knJ-23" value="Private Subnet B" style="outlineConnect=0;gradientColor=none;html=1;whiteSpace=wrap;fontSize=12;fontStyle=0;shape=mxgraph.aws4.group;grIcon=mxgraph.aws4.group_subnet;strokeColor=#879196;fillColor=none;verticalAlign=top;align=left;spacingLeft=30;fontColor=#879196;dashed=0;" parent="1" vertex="1">
          <mxGeometry x="725.9300000000001" y="-140" width="360" height="231" as="geometry" />
        </mxCell>
        <mxCell id="eBnicxtXj8pF9Ztt-knJ-24" value="Private Subnet C" style="outlineConnect=0;gradientColor=none;html=1;whiteSpace=wrap;fontSize=12;fontStyle=0;shape=mxgraph.aws4.group;grIcon=mxgraph.aws4.group_subnet;strokeColor=#879196;fillColor=none;verticalAlign=top;align=left;spacingLeft=30;fontColor=#879196;dashed=0;" parent="1" vertex="1">
          <mxGeometry x="1150.93" y="-140" width="360" height="231" as="geometry" />
        </mxCell>
        <mxCell id="eBnicxtXj8pF9Ztt-knJ-25" value="Route 53" style="points=[[0,0,0],[0.25,0,0],[0.5,0,0],[0.75,0,0],[1,0,0],[0,1,0],[0.25,1,0],[0.5,1,0],[0.75,1,0],[1,1,0],[0,0.25,0],[0,0.5,0],[0,0.75,0],[1,0.25,0],[1,0.5,0],[1,0.75,0]];outlineConnect=0;fontColor=#232F3E;fillColor=#8C4FFF;strokeColor=#ffffff;dashed=0;verticalLabelPosition=bottom;verticalAlign=top;align=center;html=1;fontSize=12;fontStyle=0;aspect=fixed;shape=mxgraph.aws4.resourceIcon;resIcon=mxgraph.aws4.route_53;" parent="1" vertex="1">
          <mxGeometry x="40" y="-390" width="68" height="68" as="geometry" />
        </mxCell>
        <mxCell id="eBnicxtXj8pF9Ztt-knJ-35" value="Application Load Balancer" style="outlineConnect=0;fontColor=#232F3E;gradientColor=none;fillColor=#8C4FFF;strokeColor=none;dashed=0;verticalLabelPosition=bottom;verticalAlign=top;align=center;html=1;fontSize=12;fontStyle=0;aspect=fixed;pointerEvents=1;shape=mxgraph.aws4.application_load_balancer;" parent="1" vertex="1">
          <mxGeometry x="180" y="-390" width="69" height="69" as="geometry" />
        </mxCell>
        <mxCell id="eBnicxtXj8pF9Ztt-knJ-41" value="" style="outlineConnect=0;fontColor=#232F3E;gradientColor=none;fillColor=#3399FF;strokeColor=none;dashed=1;verticalLabelPosition=bottom;verticalAlign=top;align=center;html=1;fontSize=12;fontStyle=0;aspect=fixed;pointerEvents=1;shape=mxgraph.aws4.application_load_balancer;fillStyle=solid;strokeWidth=0.2;" parent="1" vertex="1">
          <mxGeometry x="880.9300000000001" y="-329.5" width="70" height="70" as="geometry" />
        </mxCell>
        <mxCell id="eBnicxtXj8pF9Ztt-knJ-42" value="" style="outlineConnect=0;fontColor=#232F3E;gradientColor=none;fillColor=#3399FF;strokeColor=none;dashed=1;verticalLabelPosition=bottom;verticalAlign=top;align=center;html=1;fontSize=12;fontStyle=0;aspect=fixed;pointerEvents=1;shape=mxgraph.aws4.application_load_balancer;fillStyle=solid;strokeWidth=0.2;" parent="1" vertex="1">
          <mxGeometry x="1295.9299999999998" y="-329.5" width="70" height="70" as="geometry" />
        </mxCell>
        <mxCell id="eBnicxtXj8pF9Ztt-knJ-54" value="" style="sketch=0;outlineConnect=0;fontColor=#232F3E;gradientColor=none;fillColor=#ED7100;strokeColor=none;dashed=0;verticalLabelPosition=bottom;verticalAlign=top;align=center;html=1;fontSize=12;fontStyle=0;aspect=fixed;pointerEvents=1;shape=mxgraph.aws4.lambda_function;" parent="1" vertex="1">
          <mxGeometry x="880.9300000000001" y="-59.5" width="70" height="70" as="geometry" />
        </mxCell>
        <mxCell id="eBnicxtXj8pF9Ztt-knJ-60" value="" style="sketch=0;outlineConnect=0;fontColor=#232F3E;gradientColor=none;fillColor=#ED7100;strokeColor=none;dashed=0;verticalLabelPosition=bottom;verticalAlign=top;align=center;html=1;fontSize=12;fontStyle=0;aspect=fixed;pointerEvents=1;shape=mxgraph.aws4.lambda_function;" parent="1" vertex="1">
          <mxGeometry x="1295.93" y="-59.5" width="70" height="70" as="geometry" />
        </mxCell>
        <mxCell id="eBnicxtXj8pF9Ztt-knJ-63" value="Public Route Table B" style="outlineConnect=0;dashed=0;verticalLabelPosition=bottom;verticalAlign=top;align=center;html=1;shape=mxgraph.aws3.route_table;fillColor=#F58536;gradientColor=none;" parent="1" vertex="1">
          <mxGeometry x="1001.9300000000001" y="-374.5" width="53.26" height="49" as="geometry" />
        </mxCell>
        <mxCell id="UEzPUAAOIrF-is8g5C7q-177" value="Amazon S3&lt;br&gt;Bucket&lt;br&gt;" style="outlineConnect=0;fontColor=#232F3E;gradientColor=none;fillColor=#277116;strokeColor=none;dashed=0;verticalLabelPosition=bottom;verticalAlign=top;align=center;html=1;fontSize=12;fontStyle=0;aspect=fixed;pointerEvents=1;shape=mxgraph.aws4.bucket;labelBackgroundColor=#ffffff;" parent="1" vertex="1">
          <mxGeometry x="45.16" y="-140" width="57.69" height="60" as="geometry" />
        </mxCell>
        <mxCell id="eBnicxtXj8pF9Ztt-knJ-66" value="Public Route Table C" style="outlineConnect=0;dashed=0;verticalLabelPosition=bottom;verticalAlign=top;align=center;html=1;shape=mxgraph.aws3.route_table;fillColor=#F58536;gradientColor=none;" parent="1" vertex="1">
          <mxGeometry x="1425" y="-374.5" width="53.26" height="49" as="geometry" />
        </mxCell>
        <mxCell id="eBnicxtXj8pF9Ztt-knJ-77" value="Private Route Table B" style="outlineConnect=0;dashed=0;verticalLabelPosition=bottom;verticalAlign=top;align=center;html=1;shape=mxgraph.aws3.route_table;fillColor=#F58536;gradientColor=none;" parent="1" vertex="1">
          <mxGeometry x="1001.9300000000001" y="-108.5" width="53.26" height="49" as="geometry" />
        </mxCell>
        <mxCell id="eBnicxtXj8pF9Ztt-knJ-78" value="Private Route Table C" style="outlineConnect=0;dashed=0;verticalLabelPosition=bottom;verticalAlign=top;align=center;html=1;shape=mxgraph.aws3.route_table;fillColor=#F58536;gradientColor=none;" parent="1" vertex="1">
          <mxGeometry x="1425" y="-108.5" width="53.26" height="49" as="geometry" />
        </mxCell>
        <mxCell id="eBnicxtXj8pF9Ztt-knJ-94" value="" style="endArrow=classic;startArrow=classic;html=1;rounded=0;edgeStyle=orthogonalEdgeStyle;" parent="1" source="eBnicxtXj8pF9Ztt-knJ-35" target="eBnicxtXj8pF9Ztt-knJ-41" edge="1">
          <mxGeometry width="50" height="50" relative="1" as="geometry">
            <mxPoint x="243" y="213.5" as="sourcePoint" />
            <mxPoint x="393.71067811865476" y="-496.5" as="targetPoint" />
            <Array as="points">
              <mxPoint x="215" y="-200" />
              <mxPoint x="916" y="-200" />
            </Array>
          </mxGeometry>
        </mxCell>
        <mxCell id="eBnicxtXj8pF9Ztt-knJ-95" value="" style="endArrow=classic;startArrow=classic;html=1;rounded=0;edgeStyle=orthogonalEdgeStyle;" parent="1" source="eBnicxtXj8pF9Ztt-knJ-42" target="eBnicxtXj8pF9Ztt-knJ-35" edge="1">
          <mxGeometry width="50" height="50" relative="1" as="geometry">
            <mxPoint x="1050" y="-210" as="sourcePoint" />
            <mxPoint x="1100" y="-260" as="targetPoint" />
            <Array as="points">
              <mxPoint x="1331" y="-200" />
              <mxPoint x="215" y="-200" />
            </Array>
          </mxGeometry>
        </mxCell>
        <mxCell id="eBnicxtXj8pF9Ztt-knJ-102" value="" style="endArrow=classic;startArrow=classic;html=1;rounded=0;edgeStyle=orthogonalEdgeStyle;" parent="1" source="eBnicxtXj8pF9Ztt-knJ-63" target="eBnicxtXj8pF9Ztt-knJ-14" edge="1">
          <mxGeometry width="50" height="50" relative="1" as="geometry">
            <mxPoint x="1050" y="-210" as="sourcePoint" />
            <mxPoint x="1100" y="-260" as="targetPoint" />
            <Array as="points">
              <mxPoint x="1029" y="-510" />
            </Array>
          </mxGeometry>
        </mxCell>
        <mxCell id="eBnicxtXj8pF9Ztt-knJ-104" value="" style="endArrow=classic;startArrow=classic;html=1;rounded=0;exitX=0.5;exitY=0;exitDx=0;exitDy=0;exitPerimeter=0;edgeStyle=orthogonalEdgeStyle;entryX=1;entryY=0.5;entryDx=0;entryDy=0;entryPerimeter=0;" parent="1" edge="1">
          <mxGeometry width="50" height="50" relative="1" as="geometry">
            <mxPoint x="1451.63" y="-344.5" as="sourcePoint" />
            <mxPoint x="246.80000000000018" y="-509.5" as="targetPoint" />
            <Array as="points">
              <mxPoint x="1452" y="-509" />
            </Array>
          </mxGeometry>
        </mxCell>
        <mxCell id="eBnicxtXj8pF9Ztt-knJ-106" value="" style="endArrow=classic;startArrow=classic;html=1;rounded=0;edgeStyle=orthogonalEdgeStyle;exitX=0.5;exitY=1;exitDx=0;exitDy=0;exitPerimeter=0;" parent="1" source="eBnicxtXj8pF9Ztt-knJ-77" target="eBnicxtXj8pF9Ztt-knJ-16" edge="1">
          <mxGeometry width="50" height="50" relative="1" as="geometry">
            <mxPoint x="264" y="300" as="sourcePoint" />
            <mxPoint x="314" y="250" as="targetPoint" />
            <Array as="points">
              <mxPoint x="1029" y="61" />
            </Array>
          </mxGeometry>
        </mxCell>
        <mxCell id="eBnicxtXj8pF9Ztt-knJ-107" value="" style="endArrow=classic;startArrow=classic;html=1;rounded=0;edgeStyle=orthogonalEdgeStyle;" parent="1" source="eBnicxtXj8pF9Ztt-knJ-78" target="eBnicxtXj8pF9Ztt-knJ-16" edge="1">
          <mxGeometry width="50" height="50" relative="1" as="geometry">
            <mxPoint x="274" y="310" as="sourcePoint" />
            <mxPoint x="324" y="260" as="targetPoint" />
            <Array as="points">
              <mxPoint x="1452" y="61" />
            </Array>
          </mxGeometry>
        </mxCell>
        <mxCell id="eBnicxtXj8pF9Ztt-knJ-108" value="" style="endArrow=classic;startArrow=classic;html=1;rounded=0;edgeStyle=orthogonalEdgeStyle;" parent="1" source="eBnicxtXj8pF9Ztt-knJ-16" target="UEzPUAAOIrF-is8g5C7q-177" edge="1">
          <mxGeometry width="50" height="50" relative="1" as="geometry">
            <mxPoint x="1050" y="-170" as="sourcePoint" />
            <mxPoint x="1100" y="-220" as="targetPoint" />
          </mxGeometry>
        </mxCell>
        <mxCell id="eBnicxtXj8pF9Ztt-knJ-109" value="" style="endArrow=classic;startArrow=classic;html=1;rounded=0;entryX=1;entryY=0.5;entryDx=0;entryDy=0;entryPerimeter=0;" parent="1" source="eBnicxtXj8pF9Ztt-knJ-35" target="eBnicxtXj8pF9Ztt-knJ-25" edge="1">
          <mxGeometry width="50" height="50" relative="1" as="geometry">
            <mxPoint x="1050" y="-170" as="sourcePoint" />
            <mxPoint x="1100" y="-220" as="targetPoint" />
          </mxGeometry>
        </mxCell>
        <mxCell id="LWX1pjL-4MfZkv1i2ATA-4" value="" style="endArrow=classic;startArrow=classic;html=1;rounded=0;entryX=1;entryY=0.5;entryDx=0;entryDy=0;entryPerimeter=0;exitX=0.5;exitY=0;exitDx=0;exitDy=0;exitPerimeter=0;edgeStyle=orthogonalEdgeStyle;" edge="1" parent="1" source="eBnicxtXj8pF9Ztt-knJ-52" target="eBnicxtXj8pF9Ztt-knJ-14">
          <mxGeometry width="50" height="50" relative="1" as="geometry">
            <mxPoint x="670" y="-250" as="sourcePoint" />
            <mxPoint x="720" y="-300" as="targetPoint" />
          </mxGeometry>
        </mxCell>
      </root>
    </mxGraphModel>
  </diagram>
</mxfile>
